               PONTO DA ESFIHA
            Av. Rio Pequeno, 634
---------------------------------------------
              12/05/2017 02:04
                N. Cupom: 646
             *Sem valor fiscal*
*********************************************
             RELATORIO GERENCIAL
*********************************************
                    Itens
Cod. Produto                        Tot Qt V. UN      
0    1/2-MUSSARELA/CALABRESA       19.9  1 19.99      
------------------------------------------------
                                 TOTAL R$ 19,99
------------------------------------------------

Forma: Cartao de Debito
Senha: 646
--